<svg width="44" height="44" viewBox="0 0 44 44" fill="none" xmlns="http://www.w3.org/2000/svg">
<circle cx="22" cy="22" r="21.5" stroke="#8F67FC"/>
<path d="M18.833 16.5151L28.333 22L18.833 27.4848L18.833 16.5151Z" stroke="#8F67FC"/>
</svg>
